................
----------------------------------------------------------------------
Ran 16 tests in 0.029s

OK
Name             Stmts   Miss Branch BrPart  Cover   Missing
------------------------------------------------------------
Collatz.py          34      1     14      1    96%   20
TestCollatz.py      74      0      0      0   100%
------------------------------------------------------------
TOTAL              108      1     14      1    98%
