1 10 20
100 200 125
201 210 89
900 1000 174
1 1 1
200 100 125
1 1000 179
3000 340 217
20 20 8
9999 9999 92
1 9999 262
340 3000 217
500 101 144
9999 9998 92
2 20 21
5 15 20
50 100 119
200 300 128
600 700 145
800 900 179
1000 1100 169
1200 1300 182
1400 1500 175
1600 1700 174
1800 1900 183
2000 2100 166
2200 2300 186
2400 2500 206
2600 2700 191
2800 2900 214
3000 3100 217
3200 3300 215
3400 3500 202
3600 3700 191
3800 3900 191
4000 4100 187
4200 4300 188
4400 4500 186
4600 4700 185
4800 4900 183
5000 5100 182
5200 5300 180
5400 5500 178
5600 5700 176
5800 5900 175
6000 6100 173
6200 6300 171
6400 6500 169
6600 6700 168
6800 6900 166
7000 7100 164
7200 7300 162
7400 7500 161
7600 7700 159
7800 7900 158
8000 8100 156
8200 8300 154
8400 8500 152
8600 8700 151
8800 8900 149
9000 9100 148
9200 9300 146
9400 9500 144
9600 9700 142
9800 9900 141
10000 10100 139
10200 10300 138
10400 10500 136
10600 10700 134
10800 10900 132
11000 11100 131
11200 11300 129
11400 11500 128
11600 11700 126
11800 11900 124
12000 12100 123
12200 12300 121
12400 12500 120
12600 12700 118
12800 12900 116
13000 13100 115
13200 13300 113
13400 13500 112
13600 13700 110
13800 13900 108
14000 14100 106
14200 14300 105
14400 14500 103
14600 14700 102
14800 14900 100
15000 15100 98
15200 15300 97
15400 15500 95
15600 15700 94
15800 15900 92
16000 16100 90
16200 16300 89
16400 16500 87
16600 16700 85
16800 16900 84
17000 17100 82
17200 17300 80
17400 17500 79
17600 17700 77
17800 17900 76
18000 18100 74
18200 18300 72
18400 18500 71
18600 18700 69
18800 18900 68
19000 19100 66
19200 19300 64
19400 19500 63
19600 19700 61
19800 19900 60
