1 10 20
100 200 125
201 210 89
900 1000 174
427188 134292 449
700464 949399 525
124998 947277 525
682894 36629 509
945588 473273 525
955333 239085 525
143250 319304 443
727129 207721 509
974404 513999 525
604647 17926 470
660350 403131 509
873254 139762 525
905452 803846 525
294582 537620 470
554631 456401 470
630436 627675 341
671681 373365 509
643162 149846 509
429936 708635 509
775851 764412 468
319078 563279 470
726088 492541 509
139495 71971 354
941597 467990 525
766725 766725 194
514016 677511 509
26361 765489 509
844995 382455 525
761692 99784 509
781092 897743 525
896225 63452 525
870511 439042 525
473887 335941 449
59943 773148 509
466508 611870 470
658526 902214 525
163160 239115 443
668612 253903 509
641728 477265 509
703405 465823 509
807356 38258 509
712205 503333 509
561465 49787 470
628026 933350 525
412481 918090 525
513554 547697 452
855583 937948 476
151128 975993 525
221516 323128 443
285893 285893 128
263622 183787 443
93656 622318 470
866743 903061 445
479584 481751 413
584352 166157 470
614501 908129 525
164038 51098 383
446890 257881 449
31744 963846 525
422886 325038 449
782807 150240 509
964508 602282 525
505821 149929 449
217738 390483 443
831235 852352 525
139634 428389 449
310302 683805 509
960070 460654 525
660028 384445 509
894504 519865 525
825123 76258 509
541152 75431 470
951017 681890 525
689278 805836 504
327292 327292 185
923499 193233 525
285933 300838 389
427018 490120 444
356397 641333 509
758959 263727 509
340583 263607 407
791573 560841 509
931401 221293 525
665656 409074 509
289211 532124 470
957525 461149 525
953607 443026 525
823267 547692 509
275697 942211 525
188965 483137 449
520789 105784 470
758221 731359 424
228430 980312 525
745446 293613 509
572967 489203 470
249904 218372 443
695099 350993 509
436421 258660 449
248317 131120 443
306019 306019 84
619079 116776 470
833467 724637 468
199107 497503 449
84078 127369 354
948278 430807 525
871754 171233 525
567463 318072 470
92234 735536 509
782872 192144 509
335784 493235 449
226607 961020 525
735717 516610 509
728929 516542 509
142112 719815 509
806959 37786 509
758003 274217 509
437246 498130 444
952075 378454 525
124413 314396 443
876240 428312 525
753430 440620 509
109402 921143 525
65016 340296 443
438498 458603 400
939024 939024 52
417887 962921 525
166629 846922 525
469040 384890 449
716957 973450 525
111043 756242 509
584597 233789 470
193839 787307 509
194635 255110 443
535433 801883 509
484109 83556 449
296780 838923 525
880348 283161 525
601224 248709 470
569669 58237 470
705212 890387 525
2735 193956 383
377298 911981 525
939935 880325 507
372542 24243 443
860540 49702 525
428105 13593 449
157925 977132 525
558706 271449 470
878123 492736 525
565953 565953 85
