1 1 1
1 2 2
2 1 2
1 3 8
3 1 8
1 100 119
100 1 119
111 111 70
1111 1111 32
1000 1111 169
1111 1000 169
9999 99999 351
10000 99999 351
99990 100000 227
4294 43443 324
342 34342 311
222 111 125
111 2222 182
603 712 171
204 787 171
240 562 144
951 81124 351
985 788 179
152 509 144
643 646 101
739 48734 324
729 359 171
540 8763 262
861 757 153
693 67034 340
482 375 134
619 650 145
549 90623 351
905 271 179
442 971 179
242 5513 238
153 958 179
58 418 144
655 336 145
560 618 132
279 27542 308
532 120 144
349 363 126
980 5913 238
207 322 131
480 15734 276
857 729 153
773 636 171
884 4034 238
124 39123 324
80 576 144
336 419 134
936 227 179
20 34167 308
30 6632 262
257 195 128
387 6553 262
9424 81 262
355 23 144
575 322 144
413 382 134
41234 539 324
184 920 179
726 557 171
158 501 144
200 486 144
428 618 142
845 901 179
876 362 179
394341 1 443
2 33 112
2 7 17
3 6 9
2 5 8
538 750 171
661 301 145
49 702 145
718 611 171
625 94433 351
914 338 179
497 1883 182
558 104 144
367 380 108
712 78053 351
849 781 135
348 843 171
683 721 171
262 9374 262
673 935 179
346 518 142
324 25245 282
137 832 171
562 805 171
410 992 179
960 80 179
809 404 171
187 786 171
46 83 116
501 589 137
101 4554 238
191 420 144
954 119 179
937 60053 340
199 251 128
319 551 144
565 727 171
902 387 179
255 203 128
77 626 144
139 2 122
353 3045 217
414 499 142
987 447 179
385 9305 262
523 23 144
722 6004 238
13 969 179
594 97854 351
594 180 144
433 769 171
12 961 179
692 157 145
2 2222 182
2 4444 238
2 5555 238
1 1111 179
1111 1 179
