1 10 20
100 200 125
201 210 89
900 1000 174
77 77 23
896 800 179
800 896 179
68 78 116
5 77 116
67 43 113
2 9999 262
6500 45 262
85 95 106
47 85 116
66 66 28
900 910 117
930 670 179
5 6 9
789 792 78
56 1250 182
688 1500 182
3 1500 182
2 1500 182
4 1500 182
5 1500 182
6 1500 182
7 1500 182
15 1500 182
45 1500 182
67 1500 182
67 1800 182
67 2500 209
89 56 116
89 45 116
89 32 116
89 21 116
79 40 116
79 21 116
79 32 116
800 850 135
840 890 179
825 925 179
670 680 114
670 671 96
680 670 114
13 15 18
12 400 144
64 72 103
55 555 144
890 654 179
33 33 27
76 67 116
420 445 116
12 90 116
732 576 171
23 23 16
1234 4321 238
3070 783 217
134 570 144
19 145 122
7902 234 262
5793 420 238
3470 2340 217
5703 9878 262
795 9345 262
802 457 171
97 350 144
2 935 179
1 1909 182
1 7869 262
1 7523 262
1 9325 262
50 1489 182
50 759 171
50 5622 238
50 8923 262
67 4202 238
453 7993 262
425 270 144
705 9843 262
230 3459 217
49 16 112
4234 9205 262
7942 9234 252
2459 9245 262
29 76 116
43 69 113
23 97 119
59 793 171
239 590 144
57 973 179
35 794 171
2 395 144
7 694 145
7 937 179
92 7834 262
69 239 128
6 974 179
2 222 125
1 111 119
5 555 144
1 10000 262
2 79960 351
7 23000 279
34 86666 351
1 999999 525
89000 65000 351
