................................
----------------------------------------------------------------------
Ran 32 tests in 1.491s

OK
Name             Stmts   Miss Branch BrPart  Cover   Missing
------------------------------------------------------------
Collatz.py          70      4     24      1    95%   109-112
TestCollatz.py     137      0      0      0   100%
------------------------------------------------------------
TOTAL              207      4     24      1    98%
