1 10 20
100 200 125
201 210 89
900 1000 174
123456 789012 509
234567 123456 443
678901 345678 509
987654 12345 525
111111 222222 386
345678 987654 525
789012 456789 509
654321 789123 504
123456 654321 509
789456 234567 509
678901 109876 509
345678 890123 525
234567 345678 407
123123 987654 525
222222 444444 449
876543 123789 525
890123 456123 525
345678 567890 470
789789 123456 509
111222 333444 443
345123 789654 509
567123 890456 525
678345 901234 525
789123 321987 509
234789 456123 449
789456 123789 509
890123 345678 525
567890 123456 470
890456 567890 525
234234 345345 407
456456 567567 470
345678 234567 407
456789 789012 509
234567 678901 509
111234 345678 443
678678 789789 504
123123 234234 443
234567 456789 449
678901 234567 509
123456 789789 509
345678 876543 525
567890 901234 525
345345 678678 509
123456 123123 331
234567 345345 407
567567 666666 509
123789 987321 525
567890 123123 470
890123 678678 525
789012 890123 525
123456 234567 443
111111 333333 443
123123 678901 509
456789 123123 449
555678 789012 509
111111 888888 525
456789 901234 525
567567 345678 470
333456 567890 470
678901 890123 525
890890 123123 525
789789 123123 509
345345 456456 449
567567 678678 509
234234 567567 470
345345 890890 525
222333 444555 449
890890 901234 401
678678 789789 504
567567 678901 509
890123 234567 525
123456 678901 509
901234 567890 525
678901 345678 509
890123 123456 525
567890 789012 509
234567 901234 525
111222 333444 443
555678 901234 525
234567 789456 509
456789 567890 470
345678 123123 443
901234 123456 525
234567 678901 509
456789 123789 449
234567 345678 407
678678 789012 504
567890 345678 470
678901 890123 525
234567 567890 470
111234 678678 509
345678 789789 509
678901 123456 509
789012 890123 525
678678 901234 525
567567 789789 509
890123 123456 525
234567 567890 470
789012 345678 509
345678 567890 470
901234 678901 525
678901 123123 509
789012 234567 509
123456 890123 525
234567 345678 407
678901 567890 509
345678 789012 509
567890 901234 525
234567 678678 509
123456 789789 509
345678 890123 525
234567 345678 407
678901 567890 509
345678 789012 509
123123 234567 443
567567 789789 509
234567 567890 470
345678 678901 509
567890 901234 525
234567 345678 407
678901 123456 509
890123 234567 525
901234 678901 525
123456 345678 443
567890 678901 509
234567 789012 509
123456 789789 509
678901 123456 509
890123 234567 525
123456 567890 470
901234 345678 525
234567 678901 509
567890 123456 470
345678 234567 407
789012 567890 509
678901 345678 509
234567 567890 470
567890 789012 509
123456 678901 509
234567 345678 407
345678 567890 470
567890 234567 470
345678 789012 509
123 987 179
456 789 171
234 876 179
345 567 142
678 901 179
123 654 145
789 345 171
876 234 179
567 123 144
456 678 145
890 123 179
345 789 171
678 234 145
567 876 179
123 234 128
789 123 171
901 678 179
234 456 144
789 567 171
123 890 179
1 1 1
1 999999 525
1534 13254 268
2856 16890 276
4765 12345 268
8234 12987 268
1050 18000 279
2345 19456 279
9100 15000 276
3567 11234 268
7892 15987 276
1456 19876 279
5674 14500 276
1001 17654 279
1287 15678 276
4321 10000 262
6785 17890 279
